33	185
456	735
44	413
964	1064
849	1194
19	346
529	766
976	1081
255	1058
124	1017
163	435
597	1063
174	586
606	690
909	1000
385	1253
656	785
84	499
1051	1166
243	1201
81	223
336	420
328	566
14	1187
649	862
781	1151
65	843
708	940
295	699
207	1205
1051	1166
976	1081
1026	1041
909	1000
297	521
323	510
149	186
964	1064
385	1253
150	1073
461	496
65	843
529	766
50	1119
156	593
255	1058
269	754
89	556
649	862
721	983
819	1183
823	1184
677	1133
217	370
1094	1163
292	1164
678	719
456	735
56	109
447	485
278	315
745	1233
823	1184
217	370
65	843
149	186
649	862
597	1063
101	444
27	412
19	346
456	735
882	966
822	1068
97	384
1156	1256
697	1022
50	1119
174	586
317	359
601	1142
207	1205
396	560
124	1017
101	444
823	1184
708	940
14	1187
606	690
649	862
898	1123
181	335
292	1164
781	1151
49	242
65	843
1051	1166
150	1073
423	1175
7	986
964	1064
278	315
385	1253
830	977
19	346
328	566
221	1011
423	1175
597	1063
112	326
89	556
56	109
1156	1256
396	560
819	1183
677	1133
964	1064
385	1253
207	1205
823	1184
708	940
1051	1166
505	796
323	510
285	492
978	1111
97	384
656	785
149	186
124	1017
255	1058
677	1133
594	1036
882	966
336	420
33	185
781	1151
823	1184
649	862
292	1164
65	843
495	988
328	566
456	735
112	326
101	444
1051	1166
163	435
708	940
529	766
721	983
323	510
396	560
656	785
84	499
149	186
65	843
292	1164
1149	1204
208	642
649	862
655	687
81	223
606	690
495	988
677	1133
163	435
376	382
505	796
101	444
1094	1163
19	346
317	359
385	1253
849	1194
1051	1166
174	586
827	1108
781	1151
328	566
44	413
217	370
649	862
819	1183
456	735
677	1133
909	1000
423	1175
655	687
656	785
81	223
317	359
898	1123
163	435
50	1119
1149	1204
19	346
65	843
297	521
84	499
149	186
123	973
495	988
292	1164
89	556
708	940
461	496
292	1164
65	843
385	1253
898	1123
317	359
156	593
181	335
123	973
475	584
597	1063
373	786
882	966
456	735
150	1073
461	496
1051	1166
781	1151
656	785
376	382
1094	1163
282	1085
677	1133
495	988
909	1000
830	977
819	1183
124	1017
81	223
33	185
65	843
819	1183
174	586
50	1119
221	1011
823	1184
19	346
278	315
350	1075
44	413
456	735
656	785
1051	1166
255	1058
909	1000
505	796
292	1164
781	1151
849	1194
791	1015
385	1253
649	862
423	1175
97	384
14	1187
827	1108
174	586
1094	1163
156	593
350	1075
328	566
163	435
89	556
649	862
297	521
819	1183
292	1164
285	492
208	642
597	1063
217	370
1051	1166
385	1253
909	1000
124	1017
150	1073
295	699
606	690
278	315
721	983
976	1081
396	560
601	1142
7	986
964	1064
123	973
285	492
149	186
207	1205
7	986
350	1075
19	346
44	413
1051	1166
243	1201
823	1184
65	843
964	1064
822	1068
594	1036
631	880
124	1017
328	566
1026	1041
255	1058
597	1063
50	1119
84	499
33	185
745	1233
461	496
475	584
447	485
373	786
269	754
221	1011
721	983
601	1142
97	384
976	1081
708	940
317	359
882	966
1094	1163
631	880
819	1183
56	109
649	862
123	973
61	481
14	1187
149	186
823	1184
50	1119
292	1164
278	315
350	1075
1149	1204
323	510
597	1063
33	185
44	413
163	435
282	1085
1156	1256
745	1233
123	973
269	754
678	719
174	586
830	977
849	1194
505	796
156	593
84	499
601	1142
27	412
97	384
396	560
285	492
295	699
7	986
781	1151
649	862
594	1036
65	843
278	315
317	359
697	1022
597	1063
656	785
631	880
19	346
208	642
827	1108
350	1075
385	1253
655	687
656	785
976	1081
124	1017
56	109
898	1123
649	862
781	1151
823	1184
84	499
697	1022
721	983
255	1058
385	1253
396	560
964	1064
606	690
495	988
456	735
1051	1166
849	1194
149	186
19	346
243	1201
292	1164
373	786
677	1133
461	496
174	586
297	521
1094	1163
14	1187
44	413
328	566
56	109
19	346
174	586
292	1164
631	880
149	186
50	1119
909	1000
297	521
84	499
33	185
819	1183
97	384
898	1123
376	382
964	1064
65	843
163	435
781	1151
282	1085
150	1073
50	1119
295	699
819	1183
830	977
292	1164
505	796
317	359
278	315
823	1184
1094	1163
964	1064
149	186
44	413
1051	1166
181	335
721	983
791	1015
124	1017
27	412
175	358
19	346
423	1175
285	492
328	566
781	1151
597	1063
745	1233
606	690
19	346
678	719
278	315
597	1063
373	786
708	940
295	699
385	1253
292	1164
65	843
174	586
328	566
269	754
317	359
882	966
1094	1163
181	335
101	444
1051	1166
50	1119
456	735
505	796
495	988
849	1194
447	485
697	1022
1156	1256
819	1183
677	1133
181	335
677	1133
124	1017
50	1119
909	1000
97	384
44	413
882	966
606	690
207	1205
350	1075
819	1183
56	109
84	499
823	1184
65	843
317	359
597	1063
328	566
505	796
101	444
898	1123
781	1151
976	1081
423	1175
282	1085
14	1187
721	983
292	1164
385	1253
27	412
278	315
456	735
456	735
101	444
65	843
150	1073
601	1142
208	642
81	223
781	1151
823	1184
336	420
123	973
282	1085
149	186
163	435
1094	1163
385	1253
50	1119
898	1123
181	335
721	983
1149	1204
978	1111
14	1187
278	315
156	593
295	699
174	586
396	560
207	1205
456	735
849	1194
175	358
317	359
423	1175
50	1119
255	1058
781	1151
822	1068
44	413
65	843
677	1133
285	492
721	983
827	1108
350	1075
336	420
149	186
81	223
292	1164
475	584
124	1017
373	786
65	843
396	560
174	586
124	1017
745	1233
597	1063
19	346
678	719
822	1068
44	413
823	1184
89	556
849	1194
475	584
97	384
156	593
255	1058
84	499
33	185
819	1183
456	735
976	1081
385	1253
423	1175
292	1164
163	435
781	1151
208	642
1149	1204
708	940
594	1036
149	186
243	1201
328	566
819	1183
89	556
678	719
708	940
677	1133
745	1233
456	735
606	690
150	1073
849	1194
174	586
898	1123
278	315
65	843
285	492
181	335
594	1036
461	496
1026	1041
1149	1204
781	1151
175	358
282	1085
295	699
84	499
292	1164
697	1022
217	370
597	1063
909	1000
124	1017
385	1253
649	862
823	1184
65	843
292	1164
475	584
882	966
964	1064
317	359
601	1142
181	335
174	586
721	983
208	642
124	1017
101	444
708	940
781	1151
678	719
81	223
1026	1041
385	1253
44	413
819	1183
328	566
456	735
976	1081
656	785
285	492
1051	1166
149	186
243	1201
495	988
19	346
396	560
123	973
156	593
50	1119
649	862
65	843
278	315
163	435
282	1085
396	560
1026	1041
456	735
123	973
292	1164
285	492
678	719
49	242
677	1133
721	983
317	359
475	584
594	1036
328	566
822	1068
882	966
32	1258
149	186
101	444
656	785
328	566
292	1164
208	642
708	940
243	1201
295	699
19	346
84	499
269	754
32	1258
677	1133
81	223
14	1187
655	687
217	370
396	560
882	966
781	1151
174	586
978	1111
350	1075
964	1064
33	185
1051	1166
823	1184
317	359
721	983
677	1133
456	735
849	1194
282	1085
124	1017
909	1000
323	510
295	699
14	1187
649	862
396	560
697	1022
97	384
655	687
208	642
656	785
385	1253
50	1119
174	586
964	1064
976	1081
317	359
156	593
597	1063
292	1164
297	521
882	966
149	186
328	566
677	1133
456	735
27	412
217	370
423	1175
282	1085
721	983
597	1063
163	435
745	1233
61	481
964	1064
50	1119
317	359
292	1164
827	1108
601	1142
1149	1204
297	521
14	1187
124	1017
278	315
208	642
336	420
781	1151
606	690
373	786
976	1081
328	566
81	223
101	444
123	973
65	843
781	1151
50	1119
278	315
317	359
475	584
149	186
181	335
721	983
292	1164
822	1068
208	642
19	346
285	492
849	1194
745	1233
385	1253
1026	1041
649	862
819	1183
708	940
781	1151
964	1064
655	687
721	983
19	346
33	185
282	1085
976	1081
285	492
649	862
678	719
909	1000
217	370
101	444
112	326
123	973
396	560
174	586
297	521
601	1142
385	1253
708	940
1026	1041
81	223
745	1233
456	735
1094	1163
830	977
461	496
677	1133
150	1073
97	384
376	382
456	735
101	444
1026	1041
174	586
175	358
50	1119
278	315
964	1064
781	1151
27	412
124	1017
81	223
112	326
207	1205
909	1000
745	1233
697	1022
461	496
396	560
181	335
656	785
19	346
317	359
385	1253
456	735
208	642
81	223
350	1075
721	983
44	413
631	880
1156	1256
295	699
56	109
278	315
830	977
396	560
656	785
207	1205
149	186
174	586
243	1201
909	1000
317	359
819	1183
50	1119
529	766
124	1017
655	687
297	521
295	699
978	1111
156	593
14	1187
781	1151
101	444
594	1036
898	1123
149	186
19	346
323	510
163	435
174	586
597	1063
678	719
181	335
656	785
278	315
819	1183
461	496
823	1184
282	1085
721	983
1026	1041
243	1201
601	1142
1051	1166
1094	1163
827	1108
964	1064
385	1253
328	566
1149	1204
123	973
649	862
594	1036
456	735
597	1063
385	1253
7	986
33	185
976	1081
898	1123
269	754
721	983
221	1011
601	1142
49	242
1094	1163
830	977
606	690
19	346
964	1064
295	699
181	335
822	1068
243	1201
447	485
823	1184
208	642
217	370
27	412
505	796
336	420
14	1187
282	1085
278	315
461	496
373	786
32	1258
33	185
677	1133
882	966
823	1184
50	1119
65	843
7	986
708	940
208	642
1094	1163
181	335
594	1036
84	499
97	384
385	1253
44	413
781	1151
285	492
475	584
123	973
976	1081
27	412
1051	1166
19	346
124	1017
677	1133
745	1233
396	560
385	1253
606	690
7	986
174	586
678	719
255	1058
601	1142
101	444
1156	1256
292	1164
964	1064
456	735
65	843
181	335
781	1151
882	966
1094	1163
849	1194
677	1133
373	786
396	560
781	1151
649	862
101	444
292	1164
505	796
295	699
1026	1041
1051	1166
350	1075
149	186
1094	1163
84	499
597	1063
97	384
56	109
721	983
882	966
601	1142
285	492
81	223
243	1201
823	1184
423	1175
1051	1166
7	986
781	1151
396	560
529	766
174	586
376	382
317	359
243	1201
221	1011
323	510
631	880
84	499
65	843
61	481
81	223
649	862
124	1017
97	384
475	584
208	642
282	1085
328	566
150	1073
708	940
461	496
656	785
295	699
882	966
708	940
65	843
285	492
447	485
282	1085
44	413
1051	1166
594	1036
649	862
292	1164
631	880
909	1000
61	481
7	986
149	186
181	335
456	735
978	1111
317	359
350	1075
898	1123
529	766
208	642
33	185
278	315
50	1119
396	560
781	1151
217	370
174	586
822	1068
385	1253
708	940
909	1000
594	1036
336	420
81	223
317	359
101	444
1149	1204
19	346
721	983
328	566
124	1017
243	1201
149	186
697	1022
655	687
84	499
597	1063
163	435
123	973
649	862
65	843
849	1194
1051	1166
285	492
207	1205
243	1201
898	1123
323	510
49	242
50	1119
447	485
101	444
208	642
396	560
278	315
423	1175
594	1036
819	1183
791	1015
827	1108
14	1187
1094	1163
597	1063
456	735
328	566
124	1017
317	359
217	370
1156	1256
221	1011
475	584
385	1253
292	1164
964	1064
708	940
84	499
14	1187
978	1111
1149	1204
964	1064
396	560
461	496
101	444
181	335
50	1119
456	735
336	420
44	413
19	346
174	586
1051	1166
597	1063
208	642
49	242
285	492
150	1073
827	1108
292	1164
461	496
14	1187
1094	1163
65	843
32	1258
292	1164
745	1233
243	1201
7	986
124	1017
317	359
1156	1256
328	566
19	346
819	1183
976	1081
597	1063
601	1142
656	785
101	444
376	382
295	699
123	973
150	1073
678	719
677	1133
373	786
909	1000
447	485
33	185
65	843
649	862
781	1151
656	785
27	412
278	315
505	796
50	1119
208	642
1094	1163
217	370
317	359
285	492
597	1063
207	1205
456	735
678	719
285	492
1051	1166
447	485
1026	1041
292	1164
181	335
150	1073
19	346
649	862
124	1017
323	510
385	1253
81	223
97	384
745	1233
243	1201
174	586
721	983
65	843
50	1119
655	687
243	1201
317	359
823	1184
217	370
461	496
1094	1163
495	988
978	1111
822	1068
396	560
882	966
285	492
385	1253
124	1017
976	1081
297	521
456	735
1051	1166
1156	1256
745	1233
964	1064
285	492
50	1119
697	1022
909	1000
781	1151
292	1164
475	584
255	1058
156	593
597	1063
207	1205
89	556
243	1201
649	862
297	521
678	719
964	1064
208	642
101	444
19	346
385	1253
655	687
529	766
721	983
594	1036
65	843
217	370
44	413
328	566
174	586
278	315
978	1111
49	242
295	699
827	1108
84	499
819	1183
376	382
423	1175
791	1015
7	986
447	485
1051	1166
150	1073
328	566
19	346
721	983
297	521
65	843
909	1000
181	335
50	1119
174	586
32	1258
373	786
156	593
708	940
745	1233
278	315
649	862
385	1253
317	359
44	413
697	1022
964	1064
84	499
285	492
149	186
282	1085
823	1184
978	1111
606	690
597	1063
295	699
1149	1204
292	1164
495	988
149	186
84	499
101	444
14	1187
328	566
50	1119
336	420
781	1151
708	940
396	560
217	370
656	785
655	687
822	1068
849	1194
97	384
909	1000
964	1064
631	880
819	1183
423	1175
1156	1256
181	335
292	1164
149	186
396	560
124	1017
823	1184
32	1258
456	735
447	485
317	359
44	413
655	687
292	1164
208	642
328	566
207	1205
781	1151
269	754
649	862
174	586
898	1123
336	420
50	1119
677	1133
601	1142
597	1063
278	315
101	444
656	785
