163	435
708	940
781	1069
781	1151
1069	1151
44	413
33	185
385	1253
1051	1166
174	586
301	964
301	1064
964	1064
649	862
447	702
529	766
529	1172
766	1172
400	556
81	223
388	898
388	1123
898	1123
40	50
40	1119
50	1119
880	1198
978	1111
342	495
124	1017
343	976
343	1081
976	1081
721	983
745	1233
336	420
336	681
420	681
123	868
233	243
233	1201
243	1201
101	444
101	753
444	753
328	566
597	1063
79	396
79	560
396	560
295	699
882	966
882	1190
966	1190
606	690
73	112
475	584
84	499
84	620
499	620
656	785
697	1022
186	470
269	814
297	1045
376	416
150	1046
150	1073
1046	1073
19	346
255	1058
456	735
456	1238
735	1238
14	1187
217	370
849	1194
909	1000
65	843
278	315
909	1000
255	810
255	1058
810	1058
59	292
59	1164
292	1164
342	495
342	988
495	988
601	1142
623	1149
623	1204
1149	1204
242	813
656	785
156	593
606	690
447	485
295	519
295	699
519	699
336	420
19	346
95	461
95	496
461	496
964	1064
456	735
123	973
529	766
755	1111
597	1063
597	1169
1063	1169
655	687
1156	1256
97	384
124	1017
14	1187
584	789
243	1201
331	678
331	719
678	719
152	285
152	492
285	492
174	586
56	109
149	186
649	862
505	796
44	413
268	791
268	1015
791	1015
1051	1166
827	1108
175	358
163	435
343	976
343	1081
976	1081
819	1183
32	1258
826	1068
317	528
385	1253
61	481
297	521
297	1045
521	1045
333	823
333	1184
823	1184
33	185
880	1198
594	1036
65	483
65	843
483	843
328	566
181	335
708	940
373	1019
781	1069
781	1151
1069	1151
84	499
84	620
499	620
376	382
225	1194
221	756
221	1011
756	1011
81	223
208	642
849	1194
653	909
653	1000
909	1000
1094	1163
124	1017
781	1151
52	1051
52	1166
1051	1166
655	687
898	1123
1156	1256
123	973
79	396
385	869
385	1253
869	1253
461	496
297	521
297	1045
521	1045
207	1205
200	830
0	44
0	413
44	413
333	823
333	1184
823	1184
14	369
623	1149
649	862
217	370
278	315
278	1018
315	1018
150	1073
84	620
964	1064
336	420
81	954
174	586
174	992
586	992
456	735
255	1058
7	137
819	1183
721	983
288	1233
40	50
40	1119
50	1119
323	510
65	483
65	843
483	843
49	242
49	813
242	813
376	416
61	481
269	754
377	1036
677	1038
677	1133
1038	1133
112	326
282	1067
383	1011
678	719
444	753
19	346
149	186
697	934
156	593
317	359
317	528
359	528
976	1081
221	756
292	1164
181	731
530	656
530	785
656	785
163	435
627	1129
3	89
3	556
89	556
152	285
27	626
173	1026
173	1041
1026	1041
584	789
822	1068
827	965
708	1234
882	966
601	1142
529	766
966	1190
40	50
40	1119
50	1119
1149	1204
830	977
909	1000
150	1073
336	681
27	412
721	767
721	983
767	983
59	292
59	1164
292	1164
708	940
89	556
123	868
174	992
346	643
288	1233
33	85
33	185
85	185
823	1184
1051	1166
677	1038
677	1133
1038	1133
323	510
258	282
964	1064
328	566
84	499
373	786
456	735
1094	1163
755	978
755	1111
978	1111
529	1172
255	1058
152	285
152	492
285	492
350	1065
976	1081
649	862
678	719
221	1011
445	1142
1026	1041
14	369
475	584
475	789
584	789
199	1099
156	593
156	913
593	913
538	1017
447	485
461	496
297	521
297	1045
521	1045
56	109
791	1015
79	396
79	560
396	560
342	495
597	1063
597	1169
1063	1169
278	315
278	1018
315	1018
65	843
385	1253
217	370
97	384
175	358
101	444
101	753
444	753
423	1175
149	186
697	1022
85	185
594	1036
174	992
49	813
221	756
1156	1256
964	1064
101	444
101	753
444	753
456	735
456	1238
735	1238
597	1063
19	346
217	370
97	384
882	966
882	1190
966	1190
152	285
606	690
745	1233
822	826
822	1068
826	1068
282	1067
282	1085
1067	1085
27	412
275	481
269	754
95	461
84	620
56	109
601	1142
181	335
181	731
335	731
767	983
278	315
278	1018
315	1018
150	1046
150	1073
1046	1073
3	89
3	556
89	556
780	1175
388	898
388	1123
898	1123
149	186
149	470
186	470
59	292
59	1164
292	1164
530	656
156	593
830	977
385	1253
297	1045
373	786
1090	1094
333	823
333	1184
823	1184
1065	1075
50	1119
65	483
65	843
483	843
268	791
207	654
207	1205
654	1205
810	1058
653	909
653	1000
909	1000
554	796
342	495
447	485
649	862
243	1201
819	1183
420	681
597	1063
259	328
259	566
328	566
278	315
505	554
505	796
554	796
708	940
124	538
124	1017
538	1017
623	1149
61	481
456	735
1051	1166
677	1038
822	826
822	1068
826	1068
447	702
649	862
336	420
27	412
27	626
412	626
332	1156
332	1256
1156	1256
475	584
333	823
333	1184
823	1184
123	973
65	483
65	843
483	843
268	791
388	1123
780	1175
49	242
49	813
242	813
495	988
0	44
0	413
44	413
343	976
317	359
593	913
656	785
84	499
84	620
499	620
282	1067
81	223
81	954
223	954
350	1075
297	521
297	1045
521	1045
655	687
819	942
208	642
101	444
101	753
444	753
869	1253
85	185
358	1008
217	370
217	1104
370	1104
396	560
50	1119
697	934
697	1022
934	1022
97	384
288	1233
7	986
149	186
755	978
755	1111
978	1111
255	810
255	1058
810	1058
278	315
65	843
376	382
376	416
382	416
14	369
14	1187
369	1187
385	1253
186	470
909	1000
678	719
269	754
269	814
754	814
101	444
708	940
530	656
530	785
656	785
56	109
56	115
109	115
791	1015
830	977
317	359
336	681
819	1183
1094	1163
181	335
328	566
823	1184
7	986
150	1073
766	1172
323	510
412	626
89	556
1051	1166
68	649
68	862
649	862
898	1123
233	1201
114	292
114	1164
292	1164
767	983
207	1205
174	586
964	1064
217	1104
456	735
456	1238
735	1238
606	690
49	242
49	813
242	813
295	699
373	786
124	1017
396	560
350	1065
849	1194
0	44
84	499
84	620
499	620
677	1133
423	1175
601	1142
781	1151
152	285
152	492
285	492
73	112
56	109
0	44
0	413
44	413
156	593
156	913
593	913
827	965
175	1008
123	973
317	359
976	1081
124	1017
601	1142
295	519
447	485
207	1205
978	1111
292	1164
350	1065
68	649
68	862
649	862
606	690
32	1258
336	420
253	755
33	185
964	1064
396	560
822	1068
150	1073
173	1041
149	186
277	384
697	934
697	1022
934	1022
19	346
181	335
40	50
40	1119
50	1119
708	940
708	1234
940	1234
163	435
101	444
495	988
554	796
388	1123
1149	1204
851	946
112	326
385	1253
49	242
49	813
242	813
597	1063
152	285
282	1085
297	1045
475	584
88	341
27	412
529	766
138	208
138	642
208	642
1051	1166
81	223
373	1019
423	1175
823	1184
819	942
819	1183
942	1183
7	986
382	416
14	369
677	1133
68	862
653	1000
594	1036
269	814
849	1194
755	1111
61	481
697	1022
830	977
827	965
880	1198
461	496
597	1063
317	528
181	335
332	1156
332	1256
1156	1256
89	556
385	869
385	1253
869	1253
721	767
721	983
767	983
123	973
1051	1166
976	1081
593	913
14	1187
149	470
152	285
163	641
678	719
1065	1075
781	1069
781	1151
1069	1151
84	499
506	709
388	898
388	1123
898	1123
328	566
40	50
964	1064
396	560
792	1216
456	1238
323	510
221	1011
819	942
819	1183
942	1183
822	1068
297	521
223	954
112	326
708	940
505	796
150	1046
97	277
97	384
277	384
138	642
19	346
823	1184
56	109
56	115
109	115
217	370
207	1205
278	315
174	586
1026	1041
423	780
423	1175
780	1175
350	1075
7	986
297	521
697	934
909	1000
423	780
423	1175
780	1175
898	1123
882	966
150	1073
869	1253
233	1201
328	566
301	964
301	1064
964	1064
317	359
101	444
285	492
323	510
649	862
336	420
277	384
823	1184
123	868
49	242
606	690
56	109
505	796
200	830
200	977
830	977
677	1133
221	1011
124	538
124	1017
538	1017
1026	1041
631	880
112	326
269	814
745	1233
163	435
163	641
435	641
292	1164
3	89
3	556
89	556
149	186
149	470
186	470
721	983
781	1151
79	396
79	560
396	560
174	586
174	992
586	992
33	185
447	485
255	1058
175	1008
295	699
19	346
708	940
456	735
81	223
81	954
223	954
32	1258
1156	1256
791	1015
656	785
529	766
819	1183
1094	1163
52	1051
52	1166
1051	1166
40	50
40	1119
50	1119
678	719
336	420
101	444
530	656
530	785
656	785
323	510
109	115
288	1233
97	384
33	85
33	185
85	185
181	335
597	1063
822	826
822	1068
826	1068
14	369
882	966
594	1036
601	1142
124	1017
65	843
412	626
708	940
255	1058
791	1015
456	735
150	1046
827	1108
396	560
342	495
342	988
495	988
781	1151
529	766
529	1172
766	1172
1051	1166
295	519
149	186
225	1194
343	976
343	1081
976	1081
50	1119
755	978
755	1111
978	1111
173	1026
173	1041
1026	1041
221	756
68	649
68	862
649	862
880	1198
163	435
84	499
112	326
554	796
317	528
376	382
207	1205
385	869
385	1253
869	1253
123	973
174	586
81	223
243	1201
677	1133
333	823
333	1184
823	1184
292	1164
721	983
655	687
285	492
942	1183
423	1175
447	485
242	813
156	593
200	830
328	566
781	1151
849	1194
656	785
19	346
447	702
149	186
323	510
295	519
882	966
882	1190
966	1190
217	1104
677	1133
152	285
152	492
285	492
317	359
456	735
1149	1204
101	444
766	1172
373	786
373	1019
786	1019
52	1051
52	1166
1051	1166
708	1234
964	1064
678	719
495	988
376	416
112	326
297	521
120	551
120	655
120	687
551	655
551	687
655	687
84	499
343	976
208	642
282	1067
282	1085
1067	1085
95	461
823	1184
1065	1075
79	396
697	934
1094	1163
254	675
505	796
721	983
268	791
909	1000
328	566
819	942
819	1183
942	1183
163	435
163	641
435	641
649	862
3	556
44	413
33	185
898	1123
475	584
475	789
584	789
336	420
336	681
420	681
207	1205
332	1256
65	843
278	315
278	1018
315	1018
175	1008
538	1017
292	1164
819	942
819	1183
942	1183
505	796
708	940
317	359
370	1104
456	1238
830	977
649	862
315	1018
656	785
1149	1204
966	1190
340	606
340	690
606	690
124	538
124	1017
538	1017
65	843
49	242
791	1015
766	1172
655	687
781	1151
19	346
292	1164
697	1022
149	186
208	642
14	369
14	1187
369	1187
376	382
173	1026
173	1041
1026	1041
767	983
677	1133
328	566
288	1233
101	444
342	495
342	988
495	988
84	499
81	223
976	1081
780	1175
225	849
225	1194
849	1194
1094	1163
377	1036
174	586
174	992
586	992
79	396
79	560
396	560
163	435
385	1253
255	1058
1051	1166
97	384
1156	1256
301	1064
827	1108
61	481
822	1068
530	656
530	785
656	785
221	1011
597	1063
340	606
65	843
342	495
342	988
495	988
880	1198
295	519
677	1133
84	499
830	977
181	335
181	731
335	731
149	186
97	384
163	435
89	556
976	1081
376	382
376	416
382	416
388	898
388	1123
898	1123
217	370
623	1149
623	1204
1149	1204
653	909
653	1000
909	1000
456	735
423	1175
95	461
95	496
461	496
33	185
447	702
297	521
297	1045
521	1045
882	966
882	1190
966	1190
81	223
40	50
40	1119
50	1119
259	328
259	566
328	566
1026	1041
233	1201
175	358
649	862
27	412
56	109
56	115
109	115
123	973
7	986
278	315
285	492
268	791
336	420
336	681
420	681
150	1046
396	560
350	1065
377	427
377	594
377	1036
427	594
427	1036
594	1036
827	1108
269	754
269	814
754	814
332	1256
44	413
59	292
59	1164
292	1164
964	1064
849	1194
19	346
1051	1166
745	1233
333	1184
323	510
317	359
444	753
373	786
655	687
385	1253
73	326
388	898
388	1123
898	1123
708	940
65	843
149	186
149	470
186	470
156	593
123	868
123	973
868	973
677	1038
677	1133
1038	1133
529	766
909	1000
447	702
255	810
255	1058
810	1058
461	496
297	521
297	1045
521	1045
0	44
0	413
44	413
84	499
826	1068
505	554
505	796
554	796
423	1175
340	606
340	690
606	690
56	109
869	1253
295	699
163	435
655	687
656	785
73	112
73	326
112	326
3	89
3	556
89	556
781	1151
377	1036
584	789
315	1018
412	626
19	346
243	1201
50	1119
442	741
317	359
81	223
81	954
223	954
150	1046
150	1073
1046	1073
597	1063
456	735
333	823
333	1184
823	1184
495	988
1090	1094
1090	1163
1094	1163
767	983
61	481
79	560
649	862
292	1164
332	1156
332	1256
1156	1256
124	1017
282	1067
819	942
819	1183
942	1183
138	208
623	1149
623	1204
1149	1204
221	756
301	1064
217	370
217	1104
370	1104
445	601
445	1142
601	1142
65	843
181	335
385	1253
328	566
830	977
61	481
50	1119
175	1008
781	1069
781	1151
1069	1151
593	913
1090	1094
1090	1163
1094	1163
417	1258
819	942
819	1183
942	1183
373	786
255	810
340	606
342	495
342	988
495	988
754	814
350	1065
208	642
1149	1204
150	1046
221	756
97	384
594	1036
14	1187
233	243
233	1201
243	1201
655	687
1051	1166
59	292
59	1164
292	1164
317	359
317	528
359	528
7	986
297	521
505	796
909	1000
124	1017
376	416
174	586
677	1133
33	185
412	626
81	223
475	584
475	789
584	789
331	678
95	461
95	496
461	496
19	643
456	735
656	785
278	315
826	1068
217	370
49	242
447	485
882	966
149	186
207	1205
123	973
721	983
898	1123
529	766
101	444
101	753
444	753
44	413
827	1108
1063	1169
138	208
242	813
678	719
59	292
59	1164
292	1164
649	862
461	496
124	1017
554	796
697	1022
882	966
882	1190
966	1190
288	1233
120	687
65	843
417	1258
830	977
73	112
150	1073
317	359
317	528
359	528
373	786
819	1183
423	1175
225	1194
81	223
33	85
33	185
85	185
396	560
495	988
217	1104
781	1151
456	735
456	1238
735	1238
1094	1163
708	940
350	1075
385	1253
343	976
597	1063
530	656
530	785
656	785
282	1067
282	1085
1067	1085
677	1133
181	335
181	731
335	731
163	435
1156	1256
19	346
1051	1166
295	519
1026	1041
755	1111
123	868
123	973
868	973
653	909
653	1000
909	1000
898	1123
827	965
268	791
376	382
376	416
382	416
40	50
475	584
156	593
200	830
1051	1166
822	1068
317	359
755	1111
781	1069
781	1151
1069	1151
649	862
27	412
138	208
138	642
208	642
59	292
59	1164
292	1164
654	1205
255	1058
186	470
109	115
181	335
791	1015
1026	1041
909	1000
819	1183
217	370
594	1036
50	1119
849	1194
174	586
417	1258
597	1063
423	1175
297	521
373	786
336	420
65	843
81	223
81	954
223	954
827	1108
447	485
447	702
485	702
456	735
475	584
475	789
584	789
323	510
323	1078
510	1078
156	593
350	1075
221	1011
19	346
243	1201
529	766
529	1172
766	1172
976	1081
656	785
623	1149
623	1204
1149	1204
333	823
333	1184
823	1184
505	796
152	285
152	492
285	492
124	538
124	1017
538	1017
259	328
259	566
328	566
44	413
767	983
101	444
97	384
385	1253
964	1064
282	1067
282	1085
1067	1085
745	1233
385	1253
823	1184
292	1164
7	986
505	554
505	796
554	796
827	965
242	813
456	735
174	586
882	966
882	1190
966	1190
19	346
601	1142
221	756
221	1011
756	1011
697	1022
95	461
336	681
819	1183
653	909
653	1000
909	1000
656	785
350	1075
423	1175
61	481
417	1258
233	1201
50	1119
81	954
44	413
781	1151
1063	1169
655	687
412	626
225	849
225	1194
849	1194
278	315
163	435
277	384
259	328
343	976
444	753
1090	1094
678	719
317	528
255	810
255	1058
810	1058
207	1205
173	1041
721	983
150	1073
1051	1166
388	898
388	1123
898	1123
56	109
342	495
791	1015
84	499
84	620
499	620
677	1038
68	649
68	862
649	862
149	186
149	470
186	470
65	843
866	1223
976	1081
332	1156
332	1256
1156	1256
208	642
84	499
84	620
499	620
269	754
3	89
3	556
89	556
328	566
295	519
295	699
519	699
282	1067
678	719
703	913
174	586
350	1075
97	384
27	412
27	626
412	626
964	1064
186	470
1094	1163
461	496
385	1253
336	420
530	656
112	326
601	1142
14	1187
19	346
33	185
150	1073
297	521
81	954
505	796
49	242
584	789
827	1108
649	862
653	909
653	1000
909	1000
755	1111
654	1205
285	492
123	868
340	606
340	690
606	690
225	1194
101	444
7	986
181	731
708	940
708	1234
940	1234
163	435
745	1233
376	416
65	843
456	735
217	370
278	315
243	1201
156	593
597	1063
292	1164
1051	1166
124	1017
79	396
79	560
396	560
819	942
819	1183
942	1183
721	983
120	687
